{
  "Paths": {
    "dbConfig": {
      "dbAddress": "mongodb+srv://nikolajonic:riznicamudrosti2@cluster0-rxied.mongodb.net/FileStorageService?retryWrites=true&w=majority"
    },
    "pathForUpload":{
      "fileAddress":"C:/Users/nikola/Documents/test_ffwd/task_2/filestorageservice/uploads/"
    },
    "pathForDownload":{
      "fileAddress":"C:/Users/nikola/Documents/test_ffwd/task_2/filestorageservice/uploads/"
    },
    "tmpStoragePath":{
      "fileAddress":"C:/Users/nikola/Documents/test_ffwd/task_2/filestorageservice/tmpStorage/"
    }
  }
}
